[
    "Design is not just what it looks like and how it feels. Design is how it works.",
    "You can't just ask customers what they want and then try to give that to them. By the time you get it built, they'll want something new.",
    "A quick brown fox jump over the lazy dog",
    "The javascript this keyword refer to the object it belongs to",
    "This keyword has differente values depending on where its used",
    "Alone, This refer to the Global Object",
    "In a regular function this refer to the Global Object",
    "In a method this refer to the owner Object",
    "Execution contex the environment which our code is executed and is evaluted",
    "Coding teaches us to find out that everything has a creator."
]
